doc/buscaptures/count-and-sta.vcd
$comment
Copyright (C) 2017  Intel Corporation. All rights reserved.
Your use of Intel Corporation's design tools, logic functions 
and other software and tools, and its AMPP partner logic 
functions, and any output files from any of the foregoing 
(including device programming or simulation files), and any 
associated documentation or information are expressly subject 
to the terms and conditions of the Intel Program License 
Subscription Agreement, the Intel Quartus Prime License Agreement,
the Intel FPGA IP License Agreement, or other applicable license
agreement, including, without limitation, that your use is for
the sole purpose of programming logic devices manufactured by
Intel and sold by Intel or its authorized distributors.  Please
refer to the applicable agreement for further details.
$end

$date 
  07/07/2018 18:06:05 
$end
$version 
 QUARTUS_VCD_EXPORT 1.0 
$end
$timescale
  1 ps
$end
$var reg 1 ! virt_clk_cpu $end
$var reg 1 " VU_SHD[7] $end
$var reg 1 # VU_SHD[6] $end
$var reg 1 $ VU_SHD[5] $end
$var reg 1 % VU_SHD[4] $end
$var reg 1 & VU_SHD[3] $end
$var reg 1 ' VU_SHD[2] $end
$var reg 1 ( VU_SHD[1] $end
$var reg 1 ) VU_SHD[0] $end
$var reg 1 * VU_SHAVV_N[7] $end
$var reg 1 + VU_SHAVV_N[6] $end
$var reg 1 , VU_SHAVV_N[5] $end
$var reg 1 - VU_SHAVV_N[4] $end
$var reg 1 . VU_SHAVV_N[3] $end
$var reg 1 / VU_SHAVV_N[2] $end
$var reg 1 0 VU_SHAVV_N[1] $end
$var reg 1 1 VU_SHAVV_N[0] $end
$var reg 1 2 VU_SHAP_N[7] $end
$var reg 1 3 VU_SHAP_N[6] $end
$var reg 1 4 VU_SHAP_N[5] $end
$var reg 1 5 VU_SHAP_N[4] $end
$var reg 1 6 VU_SHAP_N[3] $end
$var reg 1 7 VU_SHAP_N[2] $end
$var reg 1 8 VU_SHAP_N[1] $end
$var reg 1 9 VU_SHAP_N[0] $end
$var reg 1 : VU_ZPZU_N $end
$var reg 1 ; VU_ZPVV_N $end
$var reg 1 < VU_STROB_SOST $end
$var reg 1 = VU_STACK $end
$var reg 1 > VU_CHTZU_N $end
$var reg 1 ? VU_CHTVV_N $end
$var reg 1 @ VU_CAS_N $end
$var reg 1 A VU_RAS_N $end
$enddefinitions $end
#0
$dumpvars
0!
X"
X#
X$
X%
X&
X'
X(
X)
X*
X+
X,
X-
X.
X/
X0
X1
X2
X3
X4
X5
X6
X7
X8
X9
X:
X;
X<
X=
X>
X?
X@
XA
$end
#20000
$comment Sample -128 (Start) $end
1!
1"
1#
0$
1%
0&
0'
1(
1)
1*
1+
1,
1-
1.
1/
10
01
02
03
04
05
06
07
08
09
1:
1;
0<
0=
1>
1?
1@
1A
#40000
0!
#60000
1!
14
17
18
#80000
0!
#100000
1!
#120000
0!
#140000
1!
#160000
0!
#180000
1!
#200000
0!
#220000
1!
0A
#240000
0!
#260000
1!
#280000
0!
#300000
1!
11
#320000
0!
#340000
1!
13
15
#360000
0!
#380000
1!
#400000
0!
#420000
1!
#440000
0!
#460000
1!
#480000
0!
#500000
1!
03
05
1A
#520000
0!
#540000
1!
#560000
0!
#580000
1!
#600000
0!
#620000
1!
0#
0%
0)
#640000
0!
#660000
1!
01
12
13
04
07
08
#680000
0!
#700000
1!
19
0A
#720000
0!
#740000
1!
#760000
0!
#780000
1!
1<
#800000
0!
#820000
1!
03
#840000
0!
#860000
1!
#880000
0!
#900000
1!
0<
#920000
0!
#940000
1!
#960000
0!
#980000
1!
0>
#1000000
0!
#1020000
1!
0"
1%
0(
#1040000
0!
#1060000
1!
#1080000
0!
#1100000
1!
#1120000
0!
#1140000
1!
#1160000
0!
#1180000
1!
#1200000
0!
#1220000
1!
1A
#1240000
0!
#1260000
1!
#1280000
0!
#1300000
1!
1>
#1320000
0!
#1340000
1!
#1360000
0!
#1380000
1!
02
14
17
18
#1400000
0!
#1420000
1!
#1440000
0!
#1460000
1!
#1480000
0!
#1500000
1!
#1520000
0!
#1540000
1!
0A
#1560000
0!
#1580000
1!
#1600000
0!
#1620000
1!
1"
#1640000
0!
#1660000
1!
0"
0-
11
13
15
09
#1680000
0!
#1700000
1!
#1720000
0!
#1740000
1!
#1760000
0!
#1780000
1!
#1800000
0!
#1820000
1!
03
05
19
1<
1A
#1840000
0!
#1860000
1!
#1880000
0!
#1900000
1!
0<
#1920000
0!
#1940000
1!
#1960000
0!
#1980000
1!
0%
12
04
07
08
09
#2000000
0!
#2020000
1!
1#
1$
1&
15
#2040000
0!
#2060000
1!
0A
#2080000
0!
#2100000
1!
#2120000
0!
#2140000
1!
05
#2160000
0!
#2180000
1!
17
0;
#2200000
0!
#2220000
1!
#2240000
0!
#2260000
1!
#2280000
0!
#2300000
1!
#2320000
0!
#2340000
1!
02
14
16
07
1A
#2360000
0!
#2380000
1!
#2400000
0!
#2420000
1!
#2440000
0!
#2460000
1!
#2480000
0!
#2500000
1!
#2520000
0!
#2540000
1!
1;
#2560000
0!
#2580000
1!
#2600000
0!
#2620000
1!
#2640000
0!
#2660000
1!
1"
0#
0&
1(
1-
01
#2680000
0!
#2700000
1!
#2720000
0!
#2740000
1!
#2760000
0!
#2780000
1!
#2800000
0!
#2820000
1!
1<
#2840000
0!
#2860000
1!
#2880000
0!
#2900000
1!
0<
0A
#2920000
0!
#2940000
1!
#2960000
0!
#2980000
1!
06
0>
#3000000
0!
#3020000
1!
1#
1%
1&
1'
1)
13
15
17
18
#3040000
0!
#3060000
1!
#3080000
0!
#3100000
1!
#3120000
0!
#3140000
1!
0"
0#
0%
0'
0)
03
05
07
08
1A
#3160000
0!
#3180000
1!
0$
0&
0(
16
#3200000
0!
#3220000
1!
#3240000
0!
#3260000
1!
#3280000
0!
#3300000
1!
06
#3320000
0!
#3340000
1!
1"
1#
1$
1%
1&
1'
1(
1)
12
13
19
#3360000
0!
#3380000
1!
0A
#3400000
0!
#3420000
1!
#3440000
0!
#3460000
1!
#3480000
0!
#3500000
1!
03
04
#3520000
0!
#3540000
1!
#3560000
0!
#3580000
1!
#3600000
0!
#3620000
1!
#3640000
0!
#3660000
1!
#3680000
0!
#3700000
1!
0"
0#
0(
0)
#3720000
0!
#3740000
1!
#3760000
0!
#3780000
1!
#3800000
0!
#3820000
1!
#3840000
0!
#3860000
1!
#3880000
0!
#3900000
1!
1A
#3920000
0!
#3940000
1!
#3960000
0!
#3980000
1!
1>
#4000000
0!
#4020000
1!
02
#4040000
0!
#4060000
1!
14
16
#4080000
0!
#4100000
1!
#4120000
0!
#4140000
1!
#4160000
0!
#4180000
1!
#4200000
0!
#4220000
1!
0A
#4240000
0!
#4260000
1!
#4280000
0!
#4300000
1!
0+
0,
06
09
#4320000
0!
#4340000
1!
0*
0-
0.
0/
00
13
15
17
18
#4360000
0!
#4380000
1!
#4400000
0!
#4420000
1!
#4440000
0!
#4460000
1!
#4480000
0!
#4500000
1!
03
05
16
07
08
19
1A
#4520000
0!
#4540000
1!
#4560000
0!
#4580000
1!
#4600000
0!
#4620000
1!
#4640000
0!
#4660000
1!
13
15
17
18
#4680000
0!
#4700000
1!
#4720000
0!
#4740000
1!
0A
#4760000
0!
#4780000
1!
#4800000
0!
#4820000
1!
#4840000
0!
#4860000
1!
#4880000
0!
#4900000
1!
#4920000
0!
#4940000
1!
#4960000
0!
#4980000
1!
1"
0%
0&
0'
1(
1*
1+
1,
1-
1.
1/
10
03
05
06
07
09
1A
#5000000
0!
#5020000
1!
16
#5040000
0!
#5060000
1!
#5080000
0!
#5100000
1!
#5120000
0!
#5140000
$comment Sample 0 (Trigger) $end
1!
1<
#5160000
0!
#5180000
1!
#5200000
0!
#5220000
1!
0<
#5240000
0!
#5260000
1!
#5280000
0!
#5300000
1!
0>
#5320000
0!
#5340000
1!
1#
1%
1&
1'
1)
#5360000
0!
#5380000
1!
#5400000
0!
#5420000
1!
#5440000
0!
#5460000
1!
#5480000
0!
#5500000
1!
#5520000
0!
#5540000
1!
0A
#5560000
0!
#5580000
1!
#5600000
0!
#5620000
1!
#5640000
0!
#5660000
1!
13
15
06
17
#5680000
0!
#5700000
1!
#5720000
0!
#5740000
1!
#5760000
0!
#5780000
1!
#5800000
0!
#5820000
1!
0"
0#
0$
0%
0&
0'
0(
0)
03
05
07
1A
#5840000
0!
#5860000
1!
16
#5880000
0!
#5900000
1!
#5920000
0!
#5940000
1!
#5960000
0!
#5980000
1!
1"
1#
1$
1%
1&
1'
1(
1)
12
04
06
08
#6000000
0!
#6020000
1!
19
#6040000
0!
#6060000
1!
0A
#6080000
0!
#6100000
1!
#6120000
0!
#6140000
1!
09
#6160000
0!
#6180000
1!
18
#6200000
0!
#6220000
1!
#6240000
0!
#6260000
1!
#6280000
0!
#6300000
1!
#6320000
0!
#6340000
1!
0"
#6360000
0!
#6380000
1!
0&
#6400000
0!
#6420000
1!
#6440000
0!
#6460000
1!
#6480000
0!
#6500000
1!
#6520000
0!
#6540000
1!
#6560000
0!
#6580000
1!
1A
#6600000
0!
#6620000
1!
1>
#6640000
0!
#6660000
1!
#6680000
0!
#6700000
1!
02
#6720000
0!
#6740000
1!
14
16
19
#6760000
0!
#6780000
1!
#6800000
0!
#6820000
1!
#6840000
0!
#6860000
1!
#6880000
0!
#6900000
1!
0A
#6920000
0!
#6940000
1!
#6960000
0!
#6980000
1!
0*
0+
0,
0-
0.
0/
00
06
09
#7000000
0!
#7020000
1!
13
15
17
#7040000
0!
#7060000
1!
#7080000
0!
#7100000
1!
#7120000
0!
#7140000
1!
03
05
07
1A
#7160000
0!
#7180000
1!
16
19
#7200000
0!
#7220000
1!
#7240000
0!
#7260000
1!
#7280000
0!
#7300000
1!
0#
0$
0%
0'
0(
0)
1*
1+
1,
1.
1/
11
04
06
09
#7320000
0!
#7340000
1!
12
15
#7360000
0!
#7380000
1!
0A
#7400000
0!
#7420000
1!
#7440000
0!
#7460000
1!
1<
#7480000
0!
#7500000
1!
05
16
17
08
19
#7520000
0!
#7540000
1!
0<
#7560000
0!
#7580000
1!
#7600000
0!
#7620000
1!
#7640000
0!
#7660000
1!
1#
1$
1&
1)
#7680000
0!
#7700000
1!
#7720000
0!
#7740000
1!
#7760000
0!
#7780000
1!
#7800000
0!
#7820000
1!
0:
#7840000
0!
#7860000
1!
#7880000
0!
#7900000
1!
1A
#7920000
0!
#7940000
1!
#7960000
0!
#7980000
1!
1:
#8000000
0!
#8020000
1!
#8040000
0!
#8060000
1!
02
09
#8080000
0!
#8100000
1!
14
#8120000
0!
#8140000
1!
#8160000
0!
#8180000
1!
#8200000
0!
#8220000
1!
0A
#8240000
0!
#8260000
1!
#8280000
0!
#8300000
1!
1-
10
#8320000
0!
#8340000
1!
1"
0#
0&
1(
0)
01
13
15
06
18
#8360000
0!
#8380000
1!
#8400000
0!
#8420000
1!
#8440000
0!
#8460000
1!
1<
#8480000
0!
#8500000
1!
03
05
16
08
1A
#8520000
0!
#8540000
1!
0<
#8560000
0!
#8580000
1!
#8600000
0!
#8620000
1!
#8640000
0!
#8660000
1!
1#
1%
1&
1'
1)
12
06
07
0>
#8680000
0!
#8700000
1!
19
#8720000
0!
#8740000
1!
0A
#8760000
0!
#8780000
1!
#8800000
0!
#8820000
1!
04
09
#8840000
0!
#8860000
1!
18
#8880000
0!
#8900000
1!
#8920000
0!
#8940000
1!
#8960000
0!
#8980000
1!
#9000000
0!
#9020000
1!
0$
0%
0&
0'
#9040000
0!
#9060000
1!
#9080000
0!
#9100000
1!
#9120000
0!
#9140000
1!
#9160000
0!
#9180000
1!
#9200000
0!
#9220000
1!
#9240000
0!
#9260000
1!
1A
#9280000
0!
#9300000
1!
1>
#9320000
0!
#9340000
1!
#9360000
0!
#9380000
1!
02
14
16
17
08
19
#9400000
0!
#9420000
1!
#9440000
0!
#9460000
1!
#9480000
0!
#9500000
1!
#9520000
0!
#9540000
1!
0A
#9560000
0!
#9580000
1!
#9600000
0!
#9620000
1!
#9640000
0!
#9660000
1!
11
13
06
18
09
#9680000
0!
#9700000
1!
15
#9720000
0!
#9740000
1!
#9760000
0!
#9780000
1!
#9800000
0!
#9820000
1!
03
05
08
19
1A
#9840000
0!
#9860000
1!
16
#9880000
0!
#9900000
1!
#9920000
0!
#9940000
1!
#9960000
0!
#9980000
1!
0#
0)
01
12
04
06
07
09
#10000000
0!
#10020000
1!
13
19
#10040000
0!
#10060000
1!
0A
#10080000
0!
#10100000
1!
#10120000
0!
#10140000
1!
03
09
1<
#10160000
0!
#10180000
1!
18
#10200000
0!
#10220000
1!
0<
#10240000
0!
#10260000
1!
#10280000
0!
#10300000
1!
0>
#10320000
0!
#10340000
1!
0"
1$
1&
1'
1)
#10360000
0!
#10380000
1!
0$
0&
0(
#10400000
0!
#10420000
1!
#10440000
0!
#10460000
1!
#10480000
0!
#10500000
1!
#10520000
0!
#10540000
1!
#10560000
0!
#10580000
1!
1A
#10600000
0!
#10620000
1!
1>
#10640000
0!
#10660000
1!
#10680000
0!
#10700000
1!
02
#10720000
0!
#10740000
1!
14
16
17
#10760000
0!
#10780000
1!
#10800000
0!
#10820000
1!
#10840000
0!
#10860000
1!
#10880000
0!
#10900000
1!
0A
#10920000
0!
#10940000
1!
#10960000
0!
#10980000
1!
1"
0'
1(
0)
06
#11000000
0!
#11020000
1!
13
15
#11040000
0!
#11060000
1!
#11080000
0!
#11100000
1!
#11120000
0!
#11140000
1!
03
05
1<
1A
#11160000
0!
#11180000
1!
16
#11200000
0!
#11220000
1!
0<
#11240000
0!
#11260000
1!
#11280000
0!
#11300000
1!
08
0>
#11320000
0!
#11340000
1!
1#
1$
1%
1&
1'
1)
12
13
06
07
19
#11360000
0!
#11380000
1!
0A
#11400000
0!
#11420000
1!
#11440000
0!
#11460000
1!
#11480000
0!
#11500000
1!
03
04
18
09
#11520000
0!
#11540000
1!
#11560000
0!
#11580000
1!
#11600000
0!
#11620000
1!
#11640000
0!
#11660000
1!
#11680000
0!
#11700000
1!
0"
0#
0$
0%
0&
0'
0(
#11720000
0!
#11740000
1!
#11760000
0!
#11780000
1!
#11800000
0!
#11820000
1!
#11840000
0!
#11860000
1!
#11880000
0!
#11900000
1!
1A
#11920000
0!
#11940000
1!
#11960000
0!
#11980000
1!
1>
#12000000
0!
#12020000
1!
02
#12040000
0!
#12060000
1!
14
16
17
19
#12080000
0!
#12100000
1!
#12120000
0!
#12140000
1!
#12160000
0!
#12180000
1!
#12200000
0!
#12220000
1!
0A
#12240000
0!
#12260000
1!
#12280000
0!
#12300000
1!
1"
1(
0)
09
#12320000
0!
#12340000
1!
1$
13
15
06
#12360000
0!
#12380000
1!
#12400000
0!
#12420000
1!
#12440000
0!
#12460000
1!
1<
#12480000
0!
#12500000
1!
03
05
16
19
1A
#12520000
0!
#12540000
1!
0<
#12560000
0!
#12580000
1!
#12600000
0!
#12620000
1!
#12640000
0!
#12660000
1!
1#
1%
1&
1'
1)
12
06
07
08
0>
#12680000
0!
#12700000
1!
#12720000
0!
#12740000
1!
0A
#12760000
0!
#12780000
1!
#12800000
0!
#12820000
1!
04
#12840000
0!
#12860000
1!
#12880000
0!
#12900000
1!
#12920000
0!
#12940000
1!
#12960000
0!
#12980000
1!
#13000000
0!
#13020000
1!
0$
0&
0'
#13040000
0!
#13060000
1!
#13080000
0!
#13100000
1!
#13120000
0!
#13140000
1!
#13160000
0!
#13180000
1!
#13200000
0!
#13220000
1!
#13240000
0!
#13260000
1!
1A
#13280000
0!
#13300000
1!
1>
#13320000
0!
#13340000
1!
#13360000
0!
#13380000
1!
02
14
09
#13400000
0!
#13420000
1!
#13440000
0!
#13460000
1!
#13480000
0!
#13500000
1!
#13520000
0!
#13540000
1!
#13560000
0!
#13580000
1!
0A
#13600000
0!
#13620000
1!
#13640000
0!
#13660000
1!
11
13
15
17
18
#13680000
0!
#13700000
1!
#13720000
0!
#13740000
1!
#13760000
0!
#13780000
1!
#13800000
0!
#13820000
1!
03
05
07
08
1A
#13840000
0!
#13860000
1!
#13880000
0!
#13900000
1!
#13920000
0!
#13940000
1!
#13960000
0!
#13980000
1!
0#
0%
0)
01
12
04
#14000000
0!
#14020000
1!
13
19
#14040000
0!
#14060000
1!
0A
#14080000
0!
#14100000
1!
#14120000
0!
#14140000
1!
03
1<
#14160000
0!
#14180000
1!
#14200000
0!
#14220000
1!
0<
#14240000
0!
#14260000
1!
#14280000
0!
#14300000
1!
0>
#14320000
0!
#14340000
1!
0"
1$
1%
1&
1)
#14360000
0!
#14380000
1!
0$
0&
0(
0)
#14400000
0!
#14420000
1!
#14440000
0!
#14460000
1!
#14480000
0!
#14500000
1!
#14520000
0!
#14540000
1!
#14560000
0!
#14580000
1!
1A
#14600000
0!
#14620000
1!
1>
#14640000
0!
#14660000
1!
#14680000
0!
#14700000
1!
02
#14720000
0!
#14740000
1!
14
#14760000
0!
#14780000
1!
#14800000
0!
#14820000
1!
#14840000
0!
#14860000
1!
#14880000
0!
#14900000
1!
0A
#14920000
0!
#14940000
1!
#14960000
0!
#14980000
1!
0-
11
09
#15000000
0!
#15020000
1!
13
15
17
18
#15040000
0!
#15060000
1!
#15080000
0!
#15100000
1!
#15120000
0!
#15140000
1!
03
08
1<
1A
#15160000
0!
#15180000
1!
05
07
19
#15200000
0!
#15220000
1!
0<
#15240000
0!
#15260000
1!
#15280000
0!
#15300000
1!
04
09
#15320000
0!
#15340000
1!
1#
1$
0%
1&
1)
12
15
#15360000
0!
#15380000
1!
0A
#15400000
0!
#15420000
1!
#15440000
0!
#15460000
1!
#15480000
0!
#15500000
1!
05
17
#15520000
0!
#15540000
1!
0;
#15560000
0!
#15580000
1!
#15600000
0!
#15620000
1!
#15640000
0!
#15660000
1!
02
14
07
18
1A
#15680000
0!
#15700000
1!
#15720000
0!
#15740000
1!
#15760000
0!
#15780000
1!
#15800000
0!
#15820000
1!
#15840000
0!
#15860000
1!
1;
#15880000
0!
#15900000
1!
#15920000
0!
#15940000
1!
#15960000
0!
#15980000
1!
0#
0&
0)
1-
01
#16000000
0!
#16020000
1!
1"
1(
#16040000
0!
#16060000
1!
#16080000
0!
#16100000
1!
#16120000
0!
#16140000
1!
1<
#16160000
0!
#16180000
1!
#16200000
0!
#16220000
1!
0<
0A
#16240000
0!
#16260000
1!
#16280000
0!
#16300000
1!
0>
#16320000
0!
#16340000
1!
1#
1%
1&
1'
1)
13
15
17
#16360000
0!
#16380000
1!
#16400000
0!
#16420000
1!
#16440000
0!
#16460000
1!
#16480000
0!
#16500000
1!
0"
0#
0$
0%
0&
0'
0(
0)
03
05
07
1A
#16520000
0!
#16540000
1!
#16560000
0!
#16580000
1!
#16600000
0!
#16620000
1!
#16640000
0!
#16660000
1!
1"
1#
1$
1%
1&
1'
1(
1)
12
13
08
#16680000
0!
#16700000
1!
19
#16720000
0!
#16740000
1!
0A
#16760000
0!
#16780000
1!
#16800000
0!
#16820000
1!
03
04
#16840000
0!
#16860000
1!
#16880000
0!
#16900000
1!
#16920000
0!
#16940000
1!
#16960000
0!
#16980000
1!
#17000000
0!
#17020000
1!
0"
0#
0(
0)
#17040000
0!
#17060000
1!
#17080000
0!
#17100000
1!
#17120000
0!
#17140000
1!
#17160000
0!
#17180000
1!
#17200000
0!
#17220000
1!
#17240000
0!
#17260000
1!
1A
#17280000
0!
#17300000
1!
1>
#17320000
0!
#17340000
1!
#17360000
0!
#17380000
1!
02
14
18
#17400000
0!
#17420000
1!
#17440000
0!
#17460000
1!
#17480000
0!
#17500000
1!
#17520000
0!
#17540000
1!
#17560000
0!
#17580000
1!
0A
#17600000
0!
#17620000
1!
#17640000
0!
#17660000
1!
0*
0+
0,
0-
0.
0/
00
13
17
09
#17680000
0!
#17700000
1!
15
#17720000
0!
#17740000
1!
#17760000
0!
#17780000
1!
#17800000
0!
#17820000
1!
03
05
07
1A
#17840000
0!
#17860000
1!
19
#17880000
0!
#17900000
1!
#17920000
0!
#17940000
1!
#17960000
0!
#17980000
1!
#18000000
0!
#18020000
1!
13
15
16
17
#18040000
0!
#18060000
1!
0A
#18080000
0!
#18100000
1!
#18120000
0!
#18140000
1!
#18160000
0!
#18180000
1!
#18200000
0!
#18220000
1!
#18240000
0!
#18260000
1!
#18280000
0!
#18300000
1!
1"
0%
0&
0'
1(
1,
03
04
05
06
07
09
#18320000
0!
#18340000
1!
1*
1+
1-
1.
1/
10
14
17
08
1A
#18360000
0!
#18380000
1!
#18400000
0!
#18420000
1!
#18440000
0!
#18460000
1!
1<
#18480000
0!
#18500000
1!
#18520000
0!
#18540000
1!
#18560000
0!
#18580000
1!
0<
#18600000
0!
#18620000
1!
#18640000
0!
#18660000
1!
1#
1%
1&
1'
1)
0>
#18680000
0!
#18700000
1!
#18720000
0!
#18740000
1!
#18760000
0!
#18780000
1!
#18800000
0!
#18820000
1!
#18840000
0!
#18860000
1!
#18880000
0!
#18900000
1!
0A
#18920000
0!
#18940000
1!
#18960000
0!
#18980000
1!
#19000000
0!
#19020000
1!
13
15
18
#19040000
0!
#19060000
1!
#19080000
0!
#19100000
1!
#19120000
0!
#19140000
1!
0"
0#
0%
03
08
1A
#19160000
0!
#19180000
1!
0$
0&
0'
0(
0)
05
#19200000
0!
#19220000
1!
#19240000
0!
#19260000
1!
#19280000
0!
#19300000
1!
04
#19320000
0!
#19340000
1!
1"
1#
1$
1%
1&
1'
1(
1)
12
07
19
#19360000
0!
#19380000
1!
0A
#19400000
0!
#19420000
1!
#19440000
0!
#19460000
1!
#19480000
0!
#19500000
1!
18
09
#19520000
0!
#19540000
1!
#19560000
0!
#19580000
1!
#19600000
0!
#19620000
1!
#19640000
0!
#19660000
1!
#19680000
0!
#19700000
1!
0"
0&
#19720000
0!
#19740000
1!
#19760000
0!
#19780000
1!
#19800000
0!
#19820000
1!
#19840000
0!
#19860000
1!
#19880000
0!
#19900000
1!
1A
#19920000
0!
#19940000
1!
#19960000
0!
#19980000
1!
1>
#20000000
0!
#20020000
1!
#20040000
0!
#20060000
1!
02
14
17
08
19
#20080000
0!
#20100000
1!
#20120000
0!
#20140000
1!
#20160000
0!
#20180000
1!
#20200000
0!
#20220000
1!
0A
#20240000
0!
#20260000
1!
#20280000
0!
#20300000
1!
0+
0,
09
#20320000
0!
#20340000
1!
0*
0-
0.
0/
00
13
15
18
#20360000
0!
#20380000
1!
#20400000
0!
#20420000
1!
#20440000
0!
#20460000
1!
#20480000
0!
#20500000
1!
03
05
08
19
1A
#20520000
0!
#20540000
1!
#20560000
0!
#20580000
1!
#20600000
0!
#20620000
1!
#20640000
0!
#20660000
1!
0#
0$
0%
0'
0(
0)
1*
1+
1,
1.
1/
11
12
04
07
09
#20680000
0!
#20700000
1!
15
18
#20720000
0!
#20740000
1!
0A
#20760000
0!
#20780000
1!
#20800000
0!
#20820000
1!
05
08
1<
#20840000
0!
#20860000
1!
16
17
19
#20880000
0!
#20900000
1!
0<
#20920000
0!
#20940000
1!
#20960000
0!
#20980000
1!
#21000000
0!
#21020000
1!
1#
1$
1&
1(
#21040000
0!
#21060000
1!
#21080000
0!
#21100000
1!
#21120000
0!
#21140000
1!
0:
#21160000
0!
#21180000
1!
#21200000
0!
#21220000
1!
#21240000
0!
#21260000
1!
1A
#21280000
0!
#21300000
1!
#21320000
0!
#21340000
1!
1:
#21360000
0!
#21380000
1!
#21400000
0!
#21420000
1!
02
14
06
18
09
#21440000
0!
#21460000
1!
#21480000
0!
#21500000
1!
#21520000
0!
#21540000
1!
#21560000
0!
#21580000
1!
0A
#21600000
0!
#21620000
1!
#21640000
0!
#21660000
1!
1"
0#
0&
1-
10
01
13
#21680000
0!
#21700000
1!
15
#21720000
0!
#21740000
1!
#21760000
0!
#21780000
1!
#21800000
0!
#21820000
1!
03
05
1<
1A
#21840000
0!
#21860000
1!
#21880000
0!
#21900000
1!
0<
#21920000
0!
#21940000
1!
#21960000
0!
#21980000
1!
12
07
08
0>
#22000000
0!
#22020000
1!
1#
1%
1&
1'
1)
19
#22040000
0!
#22060000
1!
0A
#22080000
0!
#22100000
1!
#22120000
0!
#22140000
1!
04
09
#22160000
0!
#22180000
1!
18
#22200000
0!
#22220000
1!
#22240000
0!
#22260000
1!
#22280000
0!
#22300000
1!
#22320000
0!
#22340000
1!
0%
#22360000
0!
#22380000
1!
0$
0&
0'
#22400000
0!
#22420000
1!
#22440000
0!
#22460000
1!
#22480000
0!
#22500000
1!
#22520000
0!
#22540000
1!
#22560000
0!
#22580000
1!
1A
#22600000
0!
#22620000
1!
1>
#22640000
0!
#22660000
1!
#22680000
0!
#22700000
1!
02
#22720000
0!
#22740000
1!
14
17
19
#22760000
0!
#22780000
1!
#22800000
0!
#22820000
1!
#22840000
0!
#22860000
1!
#22880000
0!
#22900000
1!
0A
#22920000
0!
#22940000
1!
#22960000
0!
#22980000
1!
11
09
#23000000
0!
#23020000
1!
13
15
#23040000
0!
#23060000
1!
#23080000
0!
#23100000
1!
#23120000
0!
#23140000
1!
#23160000
0!
#23180000
1!
03
05
19
1A
#23200000
0!
#23220000
1!
#23240000
0!
#23260000
1!
#23280000
0!
#23300000
1!
0#
0)
#23320000
0!
#23340000
1!
01
12
13
04
07
08
#23360000
0!
#23380000
1!
0A
#23400000
0!
#23420000
1!
#23440000
0!
#23460000
1!
1<
#23480000
0!
#23500000
1!
03
18
09
#23520000
0!
#23540000
1!
#23560000
0!
#23580000
1!
0<
#23600000
0!
#23620000
1!
#23640000
0!
#23660000
1!
1#
1$
1%
1&
1'
1)
0>
#23680000
0!
#23700000
1!
0"
0#
0$
0%
0&
0(
#23720000
0!
#23740000
1!
#23760000
0!
#23780000
1!
#23800000
0!
#23820000
1!
#23840000
0!
#23860000
1!
#23880000
0!
#23900000
1!
1A
#23920000
0!
#23940000
1!
#23960000
0!
#23980000
1!
1>
#24000000
0!
#24020000
1!
#24040000
0!
#24060000
1!
02
14
16
08
#24080000
0!
#24100000
1!
#24120000
0!
#24140000
1!
#24160000
0!
#24180000
1!
#24200000
0!
#24220000
1!
0A
#24240000
0!
#24260000
1!
#24280000
0!
#24300000
1!
1"
0'
1(
0)
#24320000
0!
#24340000
1!
13
15
06
17
18
#24360000
0!
#24380000
1!
#24400000
0!
#24420000
1!
#24440000
0!
#24460000
1!
1<
#24480000
0!
#24500000
1!
03
05
07
08
1A
#24520000
0!
#24540000
1!
16
#24560000
0!
#24580000
1!
0<
#24600000
0!
#24620000
1!
#24640000
0!
#24660000
1!
1#
1$
1%
1&
1'
1)
12
06
0>
#24680000
0!
#24700000
1!
13
19
#24720000
0!
#24740000
1!
0A
#24760000
0!
#24780000
1!
#24800000
0!
#24820000
1!
03
04
09
#24840000
0!
#24860000
1!
18
#24880000
0!
#24900000
1!
#24920000
0!
#24940000
1!
#24960000
0!
#24980000
1!
#25000000
0!
#25020000
1!
0"
0#
0$
0%
0&
0'
0(
#25040000
0!
#25060000
1!
#25080000
0!
#25100000
1!
#25120000
0!
#25140000
1!
#25160000
0!
#25180000
1!
#25200000
0!
#25220000
1!
#25240000
0!
#25260000
1!
1A
#25280000
0!
#25300000
1!
1>
#25320000
0!
#25340000
1!
#25360000
0!
#25380000
1!
02
14
16
08
19
#25400000
0!
#25420000
1!
#25440000
0!
#25460000
1!
#25480000
0!
#25500000
1!
#25520000
0!
#25540000
1!
#25560000
0!
#25580000
1!
0A
#25600000
0!
#25620000
1!
#25640000
0!
#25660000
1!
1"
1$
1(
0)
06
18
09
#25680000
0!
#25700000
1!
13
15
17
#25720000
0!
#25740000
1!
#25760000
0!
#25780000
1!
#25800000
0!
#25820000
1!
03
05
07
08
1<
1A
#25840000
0!
#25860000
1!
16
19
#25880000
0!
#25900000
1!
0<
#25920000
0!
#25940000
1!
#25960000
0!
#25980000
1!
12
06
0>
#26000000
0!
#26020000
1!
1#
1%
1&
1'
1)
#26040000
0!
#26060000
1!
0A
#26080000
0!
#26100000
1!
#26120000
0!
#26140000
1!
04
#26160000
0!
#26180000
1!
#26200000
0!
#26220000
1!
#26240000
0!
#26260000
1!
#26280000
0!
#26300000
1!
#26320000
0!
#26340000
1!
#26360000
0!
#26380000
1!
0$
0&
0'
#26400000
0!
#26420000
1!
#26440000
0!
#26460000
1!
#26480000
0!
#26500000
1!
#26520000
0!
#26540000
1!
#26560000
0!
#26580000
1!
1A
#26600000
0!
#26620000
1!
1>
#26640000
0!
#26660000
1!
#26680000
0!
#26700000
1!
02
09
#26720000
0!
#26740000
1!
14
16
18
#26760000
0!
#26780000
1!
#26800000
0!
#26820000
1!
#26840000
0!
#26860000
1!
#26880000
0!
#26900000
1!
0A
#26920000
0!
#26940000
1!
#26960000
0!
#26980000
1!
11
06
#27000000
0!
#27020000
1!
13
15
17
#27040000
0!
#27060000
1!
#27080000
0!
#27100000
1!
#27120000
0!
#27140000
1!
#27160000
0!
#27180000
1!
03
05
16
07
1A
#27200000
0!
#27220000
1!
#27240000
0!
#27260000
1!
#27280000
0!
#27300000
1!
0#
0%
0)
#27320000
0!
#27340000
1!
01
12
13
04
06
08
#27360000
0!
#27380000
1!
19
0A
#27400000
0!
#27420000
1!
#27440000
0!
#27460000
1!
1<
#27480000
0!
#27500000
1!
03
#27520000
0!
#27540000
1!
#27560000
0!
#27580000
1!
0<
#27600000
0!
#27620000
1!
#27640000
0!
#27660000
1!
1$
1%
1&
1)
0>
#27680000
0!
#27700000
1!
0"
0$
0&
0(
0)
#27720000
0!
#27740000
1!
#27760000
0!
#27780000
1!
#27800000
0!
#27820000
1!
#27840000
0!
#27860000
1!
#27880000
0!
#27900000
1!
1A
#27920000
0!
#27940000
1!
#27960000
0!
#27980000
1!
1>
#28000000
0!
#28020000
1!
#28040000
0!
#28060000
1!
02
14
16
18
#28080000
0!
#28100000
1!
#28120000
0!
#28140000
1!
#28160000
0!
#28180000
1!
#28200000
0!
#28220000
1!
0A
#28240000
0!
#28260000
1!
#28280000
0!
#28300000
1!
1"
#28320000
0!
#28340000
1!
0"
0-
11
13
15
06
17
09
